4o Semestre/Diseño de Sistemas Digitales/CARTA_ASM/CARTA.vcd
$date
  Wed Jun 06 12:12:26 2018
$end
$version
  GHDL v0
$end
$timescale
  1 fs
$end
$var reg 1 ! clk $end
$var reg 1 " clr $end
$var reg 1 # ini $end
$var reg 8 $ da[7:0] $end
$var reg 8 % qa[7:0] $end
$var reg 4 & an[3:0] $end
$var reg 7 ' display[6:0] $end
$scope module uut $end
$var reg 1 ( clk $end
$var reg 1 ) clr $end
$var reg 1 * ini $end
$var reg 8 + da[7:0] $end
$var reg 4 , an[3:0] $end
$var reg 7 - display[6:0] $end
$var reg 8 . qa[7:0] $end
$var reg 4 / b[3:0] $end
$var reg 7 0 codigo[6:0] $end
$var reg 1 1 lb $end
$var reg 1 2 eb $end
$var reg 1 3 z $end
$var reg 1 4 la $end
$var reg 1 5 ea $end
$var reg 1 6 ec $end
$scope module cont $end
$var reg 1 7 clk $end
$var reg 1 8 clr $end
$var reg 1 9 lb $end
$var reg 1 : eb $end
$var reg 4 ; db[3:0] $end
$var reg 4 < b[3:0] $end
$upscope $end
$scope module ctrl $end
$var reg 1 = clk $end
$var reg 1 > clr $end
$var reg 1 ? ini $end
$var reg 1 @ z $end
$var reg 1 A a0 $end
$var reg 1 B lb $end
$var reg 1 C eb $end
$var reg 1 D la $end
$var reg 1 E ea $end
$var reg 1 F ec $end
$comment edo_act is not handled $end
$comment edo_sgte is not handled $end
$upscope $end
$scope module bcd27seg $end
$var reg 7 G codigo[6:0] $end
$var reg 4 H b[3:0] $end
$upscope $end
$scope module reg $end
$var reg 1 I clk $end
$var reg 1 J clr $end
$var reg 1 K la $end
$var reg 1 L ea $end
$var reg 8 M d[7:0] $end
$var reg 8 N a[7:0] $end
$upscope $end
$upscope $end
$enddefinitions $end
#0
0!
0"
0#
b00000000 $
bUUUUUUUU %
bUUUU &
b1111110 '
0(
0)
0*
b00000000 +
bUUUU ,
b1111110 -
bUUUUUUUU .
bUUUU /
b0000001 0
11
02
03
14
05
06
07
08
19
0:
b0000 ;
bUUUU <
0=
0>
0?
0@
UA
1B
0C
1D
0E
0F
b0000001 G
bUUUU H
0I
0J
1K
0L
b00000000 M
bUUUUUUUU N
#5000000
1!
b00000000 %
1(
b00000000 .
b0000 /
13
17
b0000 <
1=
1@
0A
1B
1D
b0000 H
1I
b00000000 N
#10000000
0!
1"
0(
1)
07
18
0=
1>
0I
1J
#15000000
1!
1(
17
1=
1I
#20000000
0!
0(
07
0=
0I
#25000000
1!
1(
17
1=
1I
#30000000
0!
0(
07
0=
0I
#35000000
1!
1(
17
1=
1I
#40000000
0!
0"
b11010100 $
0(
0)
b11010100 +
07
08
0=
0>
0I
0J
b11010100 M
#45000000
1!
b11010100 %
1(
b11010100 .
03
17
1=
0@
1B
1D
1I
b11010100 N
#50000000
0!
0(
07
0=
0I
#55000000
1!
1(
17
1=
1I
#60000000
0!
1#
0(
1*
04
07
0=
1?
1B
0D
0I
0K
#65000000
1!
1(
01
15
17
09
1=
0B
1E
1I
1L
#70000000
0!
0(
07
0=
0I
#75000000
1!
b01101010 %
1(
b01101010 .
17
1=
1I
b01101010 N
#80000000
0!
0(
07
0=
0I
#85000000
1!
b00110101 %
1(
b00110101 .
12
17
1:
1=
1A
1C
1E
1I
b00110101 N
#90000000
0!
0(
07
0=
0I
#95000000
1!
b00011010 %
1(
b00011010 .
b0001 /
b1001111 0
02
17
0:
b0001 <
1=
0A
0C
1E
b1001111 G
b0001 H
1I
b00011010 N
#100000000
0!
0(
07
0=
0I
#105000000
1!
b00001101 %
1(
b00001101 .
12
17
1:
1=
1A
1C
1E
1I
b00001101 N
#110000000
0!
0(
07
0=
0I
#115000000
1!
b00000110 %
1(
b00000110 .
b0010 /
b0010010 0
02
17
0:
b0010 <
1=
0A
0C
1E
b0010010 G
b0010 H
1I
b00000110 N
#120000000
0!
0(
07
0=
0I
#125000000
1!
b00000011 %
1(
b00000011 .
12
17
1:
1=
1A
1C
1E
1I
b00000011 N
#130000000
0!
0(
07
0=
0I
#135000000
1!
b00000001 %
1(
b00000001 .
b0011 /
b0000110 0
17
b0011 <
1=
b0000110 G
b0011 H
1I
b00000001 N
#140000000
0!
0(
07
0=
0I
#145000000
1!
b00000000 %
1(
b00000000 .
b0100 /
b1001100 0
02
13
17
0:
b0100 <
1=
1@
0A
0C
1E
b1001100 G
b0100 H
1I
b00000000 N
#150000000
0!
0(
07
0=
0I
#155000000
1!
b1001100 '
1(
b1001100 -
05
16
17
1=
0E
1F
1I
0L
