Diseño de Sistemas Digitales/test.vcd
$date
  Fri Mar 23 15:03:52 2018
$end
$version
  GHDL v0
$end
$timescale
  1 fs
$end
$var reg 1 ! clk $end
$var reg 1 " clr $end
$var reg 1 # es $end
$var reg 7 $ d[6:0] $end
$var reg 2 % op[1:0] $end
$var reg 7 & q[6:0] $end
$scope module registro $end
$var reg 1 ' clk $end
$var reg 1 ( clr $end
$var reg 1 ) es $end
$var reg 7 * d[6:0] $end
$var reg 2 + op[1:0] $end
$var reg 7 , q[6:0] $end
$upscope $end
$enddefinitions $end
#0
0!
U"
1#
b1011001 $
b00 %
bUUUUUUU &
0'
U(
1)
b1011001 *
b00 +
bUUUUUUU ,
#3000000
0#
0)
#4000000
b01 %
b01 +
#5000000
1!
b1011001 &
1'
b1011001 ,
#6000000
1#
1)
#7000000
b0010110 $
b0010110 *
#8000000
b10 %
b10 +
#9000000
0#
0)
#10000000
0!
0'
#12000000
1#
b11 %
1)
b11 +
#14000000
b1011001 $
b1011001 *
#15000000
1!
0#
b0101100 &
1'
0)
b0101100 ,
#16000000
b00 %
b00 +
#18000000
1#
1)
#20000000
0!
b01 %
0'
b01 +
#21000000
0#
b0010110 $
0)
b0010110 *
#24000000
1#
b10 %
1)
b10 +
#25000000
1!
b1011001 &
1'
b1011001 ,
#27000000
0#
0)
#28000000
b1011001 $
b11 %
b1011001 *
b11 +
#30000000
0!
1#
0'
1)
#32000000
b00 %
b00 +
#33000000
0#
0)
#35000000
1!
b0010110 $
1'
b0010110 *
#36000000
1#
b01 %
1)
b01 +
#39000000
0#
0)
#40000000
0!
b10 %
0'
b10 +
#42000000
1#
b1011001 $
1)
b1011001 *
#44000000
b11 %
b11 +
#45000000
1!
0#
b0101100 &
1'
0)
b0101100 ,
#48000000
1#
b00 %
1)
b00 +
#49000000
b0010110 $
b0010110 *
#50000000
0!
0'
#51000000
0#
0)
#52000000
b01 %
b01 +
#54000000
1#
1)
#55000000
1!
b0010110 &
1'
b0010110 ,
#56000000
b1011001 $
b10 %
b1011001 *
b10 +
#57000000
0#
0)
#60000000
0!
1#
b11 %
0'
1)
b11 +
#63000000
0#
b0010110 $
0)
b0010110 *
#64000000
b00 %
b00 +
#65000000
1!
1'
#66000000
1#
1)
#68000000
b01 %
b01 +
#69000000
0#
0)
#70000000
0!
b1011001 $
0'
b1011001 *
#72000000
1#
b10 %
1)
b10 +
#75000000
1!
0#
b0101100 &
1'
0)
b0101100 ,
#76000000
b11 %
b11 +
#77000000
b0010110 $
b0010110 *
#78000000
1#
1)
#80000000
0!
b00 %
0'
b00 +
#81000000
0#
0)
#84000000
1#
b1011001 $
b01 %
1)
b1011001 *
b01 +
#85000000
1!
b1011001 &
1'
b1011001 ,
#87000000
0#
0)
#88000000
b10 %
b10 +
#90000000
0!
1#
0'
1)
#91000000
b0010110 $
b0010110 *
#92000000
b11 %
b11 +
#93000000
0#
0)
#95000000
1!
b0101100 &
1'
b0101100 ,
#96000000
1#
b00 %
1)
b00 +
#98000000
b1011001 $
b1011001 *
#99000000
0#
0)
#100000000
0!
b01 %
0'
b01 +
